"Идентификатор","Логин","Хеш-пароля","Почта","Имя","Фамилия","Отчество",Заблокирован,"Права"
"3e48d11e-fb95-4d6f-9e87-f6165d926f4b","user","$2a$10$nodHRQNV9gotxjFCKgwMvOiTiau7ZeRXvX9QCyrhE14VpNzYnvVVi","riostat79@gmail.com","Валерий","Волков","Сергеевич",false,"USER"
"ce5b8c2a-b4f8-41ef-a5f0-db871bbd03a0","admin","$2a$10$lTzn7Cn5pluquGz4RdvwVe6EzUHSNaKo47elMVBD7.VsSYsbxx8Iq","temp@gmail.com","admin@gmail.com","","",false,"ADMIN"
"cez4ze2a-b4f8-41ef-a5f0-db871bbd03a0","test","$2a$10$lTzn7Cn5pluquGz4RdvwVe6EzUHSNaKo47elMVBD7.VsSYsbxx8Iq","temp1@gmail.com","test user","","",false,"USER"